{
  "Title": "Media Controls",
  "Description": "The Media Controls mod",
  "PreviewImageUrl": "https://gitlab.com/ben-w/media-controls/-/raw/master/Ingame%20Image.png",
  "MetaData": {
    "DllName": "Media Controls.dll",
    "AllowLoadOnStart": true,
    "ShowOnMainList": true,
    "DllHash": ""
  },
  "DependenciesIds": [
    3265689427
  ]
}